SimpleForest • rTwig
…
Twig Diameters

Before we can correct the QSM radii, we need to know what our real
twig diameter is. For this example tree, the species is a Kentucky
coffee tree (Gymnocladus dioicus), which has nice, stout twigs.
rTwig comes with a data base of twigs that can be called by typing in
the twigs data set. The data set includes the average twig
radius, the min and max radius, the standard deviation, and the
coefficient of variation. Let’s look at the twig data set and find the
twig diameter for Kentucky coffee tree.

# Look at the twigs database
twigs
#> # A tibble: 96 × 7
#>    scientific.name  radius.mm     n   min   max   std    cv
#>    <chr>                <dbl> <dbl> <dbl> <dbl> <dbl> <dbl>
#>  1 Abies concolor        1.43    21  0.89  1.9   0.28  0.19
#>  2 Abies spp.            1.43    21  0.89  1.9   0.28  0.19
#>  3 Acer platanoides      1.39    30  0.89  2.03  0.3   0.21
#>  4 Acer rubrum           1.18    30  0.89  1.52  0.16  0.14
#>  5 Acer saccharinum      1.41    14  0.89  1.9   0.27  0.2 
#>  6 Acer saccharum        1.2     30  0.89  1.65  0.23  0.19
#>  7 Acer spp.             1.29   104  0.89  2.03  0.23  0.18
#>  8 Aesculus flava        2.67     8  2.29  2.79  0.2   0.08
#>  9 Aesculus spp.         2.67     8  2.29  2.79  0.2   0.08
#> 10 Betula nigra          0.85    30  0.51  1.52  0.23  0.27
#> # ℹ 86 more rows
…
